
/* Class = "UIBarButtonItem"; title = "Back"; ObjectID = "7Tx-Rr-Ymf"; */
"7Tx-Rr-Ymf.title" = "Back";

/* Class = "UIBarButtonItem"; title = "|"; ObjectID = "llc-9G-cJg"; */
"llc-9G-cJg.title" = "|";
