{
    "customerInfo": {
        "addressLine1": "100 MainStreet",
        "addressLine2": "Apt 5",
        "allowTexts": false,
        "city": "Nashville",
        "countryOfOrigin": "",
        "customerId": "5cd26e67-66b1-4f12-b9f4-963ce27a03ac",
        "dateOfBirth": "08-01-1947",
        "email": "jlsperko@gmail.com",
        "firstName": "Wile",
        "gender": "",
        "homeNumber": "5554442354",
        "isEmailVerified": true,
        "kycStatus": 100,
        "lastName": "Coyote",
        "middleInitial": "E",
        "mobileNumber": "5555551234",
        "password": "",
        "passwordChangeRequired": false,
        "registrationStatus": 100,
        "ssn": "8710",
        "state": "TN",
        "suffix": "",
        "title": "PE",
        "zip": "37523"
    },
    "errorCode": 0,
    "errorMessage": "",
    "hasTransactionsInFrankingPendingState": false,
    "isAuthenticated": true,
    "partnerName": "Acme",
    "restrictedAPIs": [],
    "sessionId": "MzFjYTczNGQtMGQ5My00MjczLWExM2QtMGI5YTMyODRmNDQzOjE6MzFjYTczNGQtMGQ5My00MjczLWExM2QtMGI5YTMyODRmNDQz",
    "showTermsAndConditions": true,
    "termsToShow": "b273745a-db79-4ec4-ae54-d8d1e74b4e10"
}