{
    "transactionId": "XXXXXXXXXXXXXX",
    "amount": 20000,
    "processingFees": [{
                       "transactionType": 100,
                       "fixedMinFee": 500,
                       "fees": [{
                                "feeType": 0,
                                "fee": 800,
                                "promoAmount": 0,
                                "netLoadAmount": 19200
                                },
                                {
                                "feeType": 1,
                                "fee": 1200,
                                "promoAmount": 0,
                                "netLoadAmount": 18800
                                }]
                       },
                       {
                       "transactionType": 200,
                       "fixedMinFee": 500,
                       "fees": [{
                                "feeType": 0,
                                "fee": 0,
                                "promoAmount": 0,
                                "netLoadAmount": 20000
                                },
                                {
                                "feeType": 1,
                                "fee": 0,
                                "promoAmount": 0,
                                "netLoadAmount": 20000
                                }]
                       }],
    "errorCode": 0,
    "errorMessage": ""
}
