{
  "errorCode": 0,
  "errorMessage": "",
  "reviewSteps": [
    {
      "chunkCount": 3,
      "chunksCompleted": 3,
      "id": "1",
      "name": "Review Step 1"
    }, 
    {
      "chunkCount": 5,
      "chunksCompleted": 5,
      "id": "2",
      "name": "Review Step 2"
    }, 
    {
      "chunkCount": 7,
      "chunksCompleted": 7,
      "id": "3",
      "name": "Review Step 3"
    }
  ], 
  "transactionData": {
    "actualLoadDate": "",
    "amount": 1337,
    "cardNickname": "",
    "classificationStatus": 1012,
    "createdOn": "2013-03-27T07:57:10.713Z",
    "declineReasonCode": 0,
    "declineReasonMessage": "",
    "expectedLoadDate": "",
    "fee": 143,
    "finishedApprovalOn": "2013-03-27T07:57:25.47Z",
    "finishedClassificationOn": "2013-03-27T07:57:25.47Z",
    "lastFourDigitsOfCard": "4334",
    "loadAmount": 1194,
    "loadStatus": 1000,
    "mobileTransactionTypeId": 100,
    "ocrAmount": 1337,
    "pickupLocationId": 0,
    "processingStatus": 1101,
    "state": 3,
    "statusCode": 0,
    "statusMessage": "",
    "submittedForApprovalOn": "2013-03-27T07:57:25.47Z",
    "submittedForClassificationOn": "2013-03-27T07:57:25.47Z",
    "transactionId": "9ebaf939-fb95-4d5e-8dd5-8341d47b6697",
    "userEnteredAmount": 1337
  }
}